test_regression/19042005/trace_file_reference.vcd

$timescale
	1 ps
$end

$scope module SystemC $end
$var wire    1  aaa  clk       $end
$var wire    1  aab  b1       $end
$var wire   64  aac  l1 [63:0]       $end
$var wire    1  aad  test1.i1       $end
$var wire    8  aae  test1.i2 [7:0]       $end
$var wire   32  aaf  test1.i3 [31:0]       $end
$var wire    4  aag  test1.i4 [3:0]       $end
$var wire    4  aah  test1.i5 [3:0]       $end
$var wire   64  aai  test1.i6 [63:0]       $end
$var wire    1  aaj  test1.o1       $end
$var wire    8  aak  test1.o2 [7:0]       $end
$var wire   32  aal  test1.o3 [31:0]       $end
$var wire    4  aam  test1.o4 [3:0]       $end
$var wire    4  aan  test1.o5 [3:0]       $end
$var wire   64  aao  test1.o6 [63:0]       $end
$var wire   64  aap  test1.io1 [63:0]       $end
$var wire   32  aaq  test1.io4 [31:0]       $end
$var wire    1  aar  s1       $end
$var wire    1  aas  s2       $end
$var wire    8  aat  s3 [7:0]       $end
$var wire    8  aau  s4 [7:0]       $end
$var wire   32  aav  s5 [31:0]       $end
$var wire   32  aaw  s6 [31:0]       $end
$var wire    4  aax  s7 [3:0]       $end
$var wire    4  aay  s8 [3:0]       $end
$var wire    4  aaz  s9 [3:0]       $end
$var wire    4  aba  s10 [3:0]       $end
$var wire   64  abb  s11 [63:0]       $end
$var wire   64  abc  s12 [63:0]       $end
$var wire   64  abd  s13 [63:0]       $end
$var wire   32  abe  s16 [31:0]       $end
$upscope $end
$enddefinitions  $end

$comment
All initial values are dumped below at time 0 sec = 0 timescale units.
$end

$dumpvars
0aab
b0 aac
0aad
b0 aae
b0 aaf
b0 aag
b0 aah
b0 aai
0aaj
b0 aak
b0 aal
b0 aam
b0 aan
b0 aao
b0 aap
b0 aaq
0aar
0aas
b0 aat
b0 aau
b0 aav
b0 aaw
b0 aax
b0 aay
b0 aaz
b0 aba
b0 abb
b0 abc
b0 abd
b0 abe
1aaa
$end

#500
0aaa

#1000
b110 aac
1aad
b10 aae
b11 aaf
b100 aag
b101 aah
b1 aai
b10 aak
b10 aal
b10 aam
b10 aan
b10 aao
b11 aap
b10 aaq
1aar
b10 aat
b10 aau
b11 aav
b10 aaw
b100 aax
b10 aay
b101 aaz
b10 aba
b1 abb
b10 abc
b11 abd
b10 abe
1aaa

#1500
0aaa

#2000
1aab
b1000 aac
0aad
b100 aae
b110 aaf
b1000 aag
b1010 aah
b101 aai
1aaj
b11 aak
b11 aal
b11 aam
b11 aan
b100 aao
b111 aap
b11 aaq
0aar
1aas
b100 aat
b11 aau
b110 aav
b11 aaw
b1000 aax
b11 aay
b1010 aaz
b11 aba
b101 abb
b100 abc
b111 abd
b11 abe
1aaa

#2500
0aaa

#3000
0aab
b1011 aac
1aad
b110 aae
b1001 aaf
b1100 aag
b1111 aah
b10101 aai
0aaj
b100 aak
b100 aal
b100 aam
b100 aan
b1000 aao
b1111 aap
b100 aaq
1aar
0aas
b110 aat
b100 aau
b1001 aav
b100 aaw
b1100 aax
b100 aay
b1111 aaz
b100 aba
b10101 abb
b1000 abc
b1111 abd
b100 abe
1aaa

#3500
0aaa

#4000
1aab
b1111 aac
0aad
b1000 aae
b1100 aaf
b0 aag
b100 aah
b1010101 aai
1aaj
b101 aak
b101 aal
b101 aam
b101 aan
b10000 aao
b11111 aap
b101 aaq
0aar
1aas
b1000 aat
b101 aau
b1100 aav
b101 aaw
b0 aax
b101 aay
b100 aaz
b101 aba
b1010101 abb
b10000 abc
b11111 abd
b101 abe
1aaa

#4500
0aaa

#5000
0aab
b10100 aac
1aad
b1010 aae
b1111 aaf
b100 aag
b1001 aah
b101010101 aai
0aaj
b110 aak
b110 aal
b110 aam
b110 aan
b100000 aao
b111111 aap
b110 aaq
1aar
0aas
b1010 aat
b110 aau
b1111 aav
b110 aaw
b100 aax
b110 aay
b1001 aaz
b110 aba
b101010101 abb
b100000 abc
b111111 abd
b110 abe
1aaa

#5500
0aaa

#6000
1aab
b11010 aac
0aad
b1100 aae
b10010 aaf
b1000 aag
b1110 aah
b10101010101 aai
1aaj
b111 aak
b111 aal
b111 aam
b111 aan
b1000000 aao
b1111111 aap
b111 aaq
0aar
1aas
b1100 aat
b111 aau
b10010 aav
b111 aaw
b1000 aax
b111 aay
b1110 aaz
b111 aba
b10101010101 abb
b1000000 abc
b1111111 abd
b111 abe
1aaa

#6500
0aaa

#7000
0aab
b100001 aac
1aad
b1110 aae
b10101 aaf
b1100 aag
b11 aah
b1010101010101 aai
0aaj
b1000 aak
b1000 aal
b1000 aam
b1000 aan
b10000000 aao
b11111111 aap
b1000 aaq
1aar
0aas
b1110 aat
b1000 aau
b10101 aav
b1000 aaw
b1100 aax
b1000 aay
b11 aaz
b1000 aba
b1010101010101 abb
b10000000 abc
b11111111 abd
b1000 abe
1aaa

#7500
0aaa

#8000
1aab
b101001 aac
0aad
b10000 aae
b11000 aaf
b0 aag
b1000 aah
b101010101010101 aai
1aaj
b1001 aak
b1001 aal
b1001 aam
b1001 aan
b100000000 aao
b111111111 aap
b1001 aaq
0aar
1aas
b10000 aat
b1001 aau
b11000 aav
b1001 aaw
b0 aax
b1001 aay
b1000 aaz
b1001 aba
b101010101010101 abb
b100000000 abc
b111111111 abd
b1001 abe
1aaa

#8500
0aaa

#9000
0aab
b110010 aac
1aad
b10010 aae
b11011 aaf
b100 aag
b1101 aah
b10101010101010101 aai
0aaj
b1010 aak
b1010 aal
b1010 aam
b1010 aan
b1000000000 aao
b1111111111 aap
b1010 aaq
1aar
0aas
b10010 aat
b1010 aau
b11011 aav
b1010 aaw
b100 aax
b1010 aay
b1101 aaz
b1010 aba
b10101010101010101 abb
b1000000000 abc
b1111111111 abd
b1010 abe
1aaa

#9500
0aaa

#10000
1aab
b111100 aac
0aad
b10100 aae
b11110 aaf
b1000 aag
b10 aah
b1010101010101010101 aai
1aaj
b1011 aak
b1011 aal
b1011 aam
b1011 aan
b10000000000 aao
b11111111111 aap
b1011 aaq
0aar
1aas
b10100 aat
b1011 aau
b11110 aav
b1011 aaw
b1000 aax
b1011 aay
b10 aaz
b1011 aba
b1010101010101010101 abb
b10000000000 abc
b11111111111 abd
b1011 abe
1aaa

#10500
0aaa

#11000
0aab
b1000111 aac
1aad
b10110 aae
b100001 aaf
b1100 aag
b111 aah
b101010101010101010101 aai
0aaj
b1100 aak
b1100 aal
b1100 aam
b1100 aan
b100000000000 aao
b111111111111 aap
b1100 aaq
1aar
0aas
b10110 aat
b1100 aau
b100001 aav
b1100 aaw
b1100 aax
b1100 aay
b111 aaz
b1100 aba
b101010101010101010101 abb
b100000000000 abc
b111111111111 abd
b1100 abe
1aaa

#11500
0aaa

#12000
1aab
b1010011 aac
0aad
b11000 aae
b100100 aaf
b0 aag
b1100 aah
b10101010101010101010101 aai
1aaj
b1101 aak
b1101 aal
b1101 aam
b1101 aan
b1000000000000 aao
b1111111111111 aap
b1101 aaq
0aar
1aas
b11000 aat
b1101 aau
b100100 aav
b1101 aaw
b0 aax
b1101 aay
b1100 aaz
b1101 aba
b10101010101010101010101 abb
b1000000000000 abc
b1111111111111 abd
b1101 abe
1aaa

#12500
0aaa

#13000
0aab
b1100000 aac
1aad
b11010 aae
b100111 aaf
b100 aag
b1 aah
b1010101010101010101010101 aai
0aaj
b1110 aak
b1110 aal
b1110 aam
b1110 aan
b10000000000000 aao
b11111111111111 aap
b1110 aaq
1aar
0aas
b11010 aat
b1110 aau
b100111 aav
b1110 aaw
b100 aax
b1110 aay
b1 aaz
b1110 aba
b1010101010101010101010101 abb
b10000000000000 abc
b11111111111111 abd
b1110 abe
1aaa

#13500
0aaa

#14000
1aab
b1101110 aac
0aad
b11100 aae
b101010 aaf
b1000 aag
b110 aah
b101010101010101010101010101 aai
1aaj
b1111 aak
b1111 aal
b1111 aam
b1111 aan
b100000000000000 aao
b111111111111111 aap
b1111 aaq
0aar
1aas
b11100 aat
b1111 aau
b101010 aav
b1111 aaw
b1000 aax
b1111 aay
b110 aaz
b1111 aba
b101010101010101010101010101 abb
b100000000000000 abc
b111111111111111 abd
b1111 abe
1aaa

#14500
0aaa

#15000
0aab
b1111101 aac
1aad
b11110 aae
b101101 aaf
b1100 aag
b1011 aah
b10101010101010101010101010101 aai
0aaj
b10000 aak
b10000 aal
b0 aam
b0 aan
b1000000000000000 aao
b1111111111111111 aap
b10000 aaq
1aar
0aas
b11110 aat
b10000 aau
b101101 aav
b10000 aaw
b1100 aax
b0 aay
b1011 aaz
b0 aba
b10101010101010101010101010101 abb
b1000000000000000 abc
b1111111111111111 abd
b10000 abe
1aaa

#15500
0aaa

#16000
1aab
b10001101 aac
0aad
b100000 aae
b110000 aaf
b0 aag
b0 aah
b1010101010101010101010101010101 aai
1aaj
b10001 aak
b10001 aal
b1 aam
b1 aan
b10000000000000000 aao
b11111111111111111 aap
b10001 aaq
0aar
1aas
b100000 aat
b10001 aau
b110000 aav
b10001 aaw
b0 aax
b1 aay
b0 aaz
b1 aba
b1010101010101010101010101010101 abb
b10000000000000000 abc
b11111111111111111 abd
b10001 abe
1aaa

#16500
0aaa

#17000
0aab
b10011110 aac
1aad
b100010 aae
b110011 aaf
b100 aag
b101 aah
b101010101010101010101010101010101 aai
0aaj
b10010 aak
b10010 aal
b10 aam
b10 aan
b100000000000000000 aao
b111111111111111111 aap
b10010 aaq
1aar
0aas
b100010 aat
b10010 aau
b110011 aav
b10010 aaw
b100 aax
b10 aay
b101 aaz
b10 aba
b101010101010101010101010101010101 abb
b100000000000000000 abc
b111111111111111111 abd
b10010 abe
1aaa

#17500
0aaa

#18000
1aab
b10110000 aac
0aad
b100100 aae
b110110 aaf
b1000 aag
b1010 aah
b10101010101010101010101010101010101 aai
1aaj
b10011 aak
b10011 aal
b11 aam
b11 aan
b1000000000000000000 aao
b1111111111111111111 aap
b10011 aaq
0aar
1aas
b100100 aat
b10011 aau
b110110 aav
b10011 aaw
b1000 aax
b11 aay
b1010 aaz
b11 aba
b10101010101010101010101010101010101 abb
b1000000000000000000 abc
b1111111111111111111 abd
b10011 abe
1aaa

#18500
0aaa

#19000
0aab
b11000011 aac
1aad
b100110 aae
b111001 aaf
b1100 aag
b1111 aah
b1010101010101010101010101010101010101 aai
0aaj
b10100 aak
b10100 aal
b100 aam
b100 aan
b10000000000000000000 aao
b11111111111111111111 aap
b10100 aaq
1aar
0aas
b100110 aat
b10100 aau
b111001 aav
b10100 aaw
b1100 aax
b100 aay
b1111 aaz
b100 aba
b1010101010101010101010101010101010101 abb
b10000000000000000000 abc
b11111111111111111111 abd
b10100 abe
1aaa

#19500
0aaa

#20000
1aab
b11010111 aac
0aad
b101000 aae
b111100 aaf
b0 aag
b100 aah
b101010101010101010101010101010101010101 aai
1aaj
b10101 aak
b10101 aal
b101 aam
b101 aan
b100000000000000000000 aao
b111111111111111111111 aap
b10101 aaq
0aar
1aas
b101000 aat
b10101 aau
b111100 aav
b10101 aaw
b0 aax
b101 aay
b100 aaz
b101 aba
b101010101010101010101010101010101010101 abb
b100000000000000000000 abc
b111111111111111111111 abd
b10101 abe
1aaa

#20500
0aaa

#21000
0aab
b11101100 aac
1aad
b101010 aae
b111111 aaf
b100 aag
b1001 aah
b10101010101010101010101010101010101010101 aai
0aaj
b10110 aak
b10110 aal
b110 aam
b110 aan
b1000000000000000000000 aao
b1111111111111111111111 aap
b10110 aaq
1aar
0aas
b101010 aat
b10110 aau
b111111 aav
b10110 aaw
b100 aax
b110 aay
b1001 aaz
b110 aba
b10101010101010101010101010101010101010101 abb
b1000000000000000000000 abc
b1111111111111111111111 abd
b10110 abe
1aaa

#21500
0aaa

#22000
1aab
b100000010 aac
0aad
b101100 aae
b1000010 aaf
b1000 aag
b1110 aah
b1010101010101010101010101010101010101010101 aai
1aaj
b10111 aak
b10111 aal
b111 aam
b111 aan
b10000000000000000000000 aao
b11111111111111111111111 aap
b10111 aaq
0aar
1aas
b101100 aat
b10111 aau
b1000010 aav
b10111 aaw
b1000 aax
b111 aay
b1110 aaz
b111 aba
b1010101010101010101010101010101010101010101 abb
b10000000000000000000000 abc
b11111111111111111111111 abd
b10111 abe
1aaa

#22500
0aaa

#23000
0aab
b100011001 aac
1aad
b101110 aae
b1000101 aaf
b1100 aag
b11 aah
b101010101010101010101010101010101010101010101 aai
0aaj
b11000 aak
b11000 aal
b1000 aam
b1000 aan
b100000000000000000000000 aao
b111111111111111111111111 aap
b11000 aaq
1aar
0aas
b101110 aat
b11000 aau
b1000101 aav
b11000 aaw
b1100 aax
b1000 aay
b11 aaz
b1000 aba
b101010101010101010101010101010101010101010101 abb
b100000000000000000000000 abc
b111111111111111111111111 abd
b11000 abe
1aaa

#23500
0aaa

#24000
1aab
b100110001 aac
0aad
b110000 aae
b1001000 aaf
b0 aag
b1000 aah
b10101010101010101010101010101010101010101010101 aai
1aaj
b11001 aak
b11001 aal
b1001 aam
b1001 aan
b1000000000000000000000000 aao
b1111111111111111111111111 aap
b11001 aaq
0aar
1aas
b110000 aat
b11001 aau
b1001000 aav
b11001 aaw
b0 aax
b1001 aay
b1000 aaz
b1001 aba
b10101010101010101010101010101010101010101010101 abb
b1000000000000000000000000 abc
b1111111111111111111111111 abd
b11001 abe
1aaa

#24500
0aaa

#25000
0aab
b101001010 aac
1aad
b110010 aae
b1001011 aaf
b100 aag
b1101 aah
b1010101010101010101010101010101010101010101010101 aai
0aaj
b11010 aak
b11010 aal
b1010 aam
b1010 aan
b10000000000000000000000000 aao
b11111111111111111111111111 aap
b11010 aaq
1aar
0aas
b110010 aat
b11010 aau
b1001011 aav
b11010 aaw
b100 aax
b1010 aay
b1101 aaz
b1010 aba
b1010101010101010101010101010101010101010101010101 abb
b10000000000000000000000000 abc
b11111111111111111111111111 abd
b11010 abe
1aaa

#25500
0aaa

#26000
1aab
b101100100 aac
0aad
b110100 aae
b1001110 aaf
b1000 aag
b10 aah
b101010101010101010101010101010101010101010101010101 aai
1aaj
b11011 aak
b11011 aal
b1011 aam
b1011 aan
b100000000000000000000000000 aao
b111111111111111111111111111 aap
b11011 aaq
0aar
1aas
b110100 aat
b11011 aau
b1001110 aav
b11011 aaw
b1000 aax
b1011 aay
b10 aaz
b1011 aba
b101010101010101010101010101010101010101010101010101 abb
b100000000000000000000000000 abc
b111111111111111111111111111 abd
b11011 abe
1aaa

#26500
0aaa

#27000
0aab
b101111111 aac
1aad
b110110 aae
b1010001 aaf
b1100 aag
b111 aah
b10101010101010101010101010101010101010101010101010101 aai
0aaj
b11100 aak
b11100 aal
b1100 aam
b1100 aan
b1000000000000000000000000000 aao
b1111111111111111111111111111 aap
b11100 aaq
1aar
0aas
b110110 aat
b11100 aau
b1010001 aav
b11100 aaw
b1100 aax
b1100 aay
b111 aaz
b1100 aba
b10101010101010101010101010101010101010101010101010101 abb
b1000000000000000000000000000 abc
b1111111111111111111111111111 abd
b11100 abe
1aaa

#27500
0aaa

#28000
1aab
b110011011 aac
0aad
b111000 aae
b1010100 aaf
b0 aag
b1100 aah
b1010101010101010101010101010101010101010101010101010101 aai
1aaj
b11101 aak
b11101 aal
b1101 aam
b1101 aan
b10000000000000000000000000000 aao
b11111111111111111111111111111 aap
b11101 aaq
0aar
1aas
b111000 aat
b11101 aau
b1010100 aav
b11101 aaw
b0 aax
b1101 aay
b1100 aaz
b1101 aba
b1010101010101010101010101010101010101010101010101010101 abb
b10000000000000000000000000000 abc
b11111111111111111111111111111 abd
b11101 abe
1aaa

#28500
0aaa

#29000
0aab
b110111000 aac
1aad
b111010 aae
b1010111 aaf
b100 aag
b1 aah
b101010101010101010101010101010101010101010101010101010101 aai
0aaj
b11110 aak
b11110 aal
b1110 aam
b1110 aan
b100000000000000000000000000000 aao
b111111111111111111111111111111 aap
b11110 aaq
1aar
0aas
b111010 aat
b11110 aau
b1010111 aav
b11110 aaw
b100 aax
b1110 aay
b1 aaz
b1110 aba
b101010101010101010101010101010101010101010101010101010101 abb
b100000000000000000000000000000 abc
b111111111111111111111111111111 abd
b11110 abe
1aaa

#29500
0aaa

#30000
1aab
b111010110 aac
0aad
b111100 aae
b1011010 aaf
b1000 aag
b110 aah
b10101010101010101010101010101010101010101010101010101010101 aai
1aaj
b11111 aak
b11111 aal
b1111 aam
b1111 aan
b1000000000000000000000000000000 aao
b1111111111111111111111111111111 aap
b11111 aaq
0aar
1aas
b111100 aat
b11111 aau
b1011010 aav
b11111 aaw
b1000 aax
b1111 aay
b110 aaz
b1111 aba
b10101010101010101010101010101010101010101010101010101010101 abb
b1000000000000000000000000000000 abc
b1111111111111111111111111111111 abd
b11111 abe
1aaa

#30500
0aaa

#31000
0aab
b111110101 aac
1aad
b111110 aae
b1011101 aaf
b1100 aag
b1011 aah
b1010101010101010101010101010101010101010101010101010101010101 aai
0aaj
b100000 aak
b100000 aal
b0 aam
b0 aan
b10000000000000000000000000000000 aao
b11111111111111111111111111111111 aap
b100000 aaq
1aar
0aas
b111110 aat
b100000 aau
b1011101 aav
b100000 aaw
b1100 aax
b0 aay
b1011 aaz
b0 aba
b1010101010101010101010101010101010101010101010101010101010101 abb
b10000000000000000000000000000000 abc
b11111111111111111111111111111111 abd
b100000 abe
1aaa

#31500
0aaa

#32000
1aab
b1000010101 aac
0aad
b1000000 aae
b1100000 aaf
b0 aag
b0 aah
b101010101010101010101010101010101010101010101010101010101010101 aai
1aaj
b100001 aak
b100001 aal
b1 aam
b1 aan
b100000000000000000000000000000000 aao
b111111111111111111111111111111111 aap
b100001 aaq
0aar
1aas
b1000000 aat
b100001 aau
b1100000 aav
b100001 aaw
b0 aax
b1 aay
b0 aaz
b1 aba
b101010101010101010101010101010101010101010101010101010101010101 abb
b100000000000000000000000000000000 abc
b111111111111111111111111111111111 abd
b100001 abe
1aaa

#32500
0aaa

#33000
0aab
b1000110110 aac
1aad
b1000010 aae
b1100011 aaf
b100 aag
b101 aah
0aaj
b100010 aak
b100010 aal
b10 aam
b10 aan
b1000000000000000000000000000000000 aao
b1111111111111111111111111111111111 aap
b100010 aaq
1aar
0aas
b1000010 aat
b100010 aau
b1100011 aav
b100010 aaw
b100 aax
b10 aay
b101 aaz
b10 aba
b1000000000000000000000000000000000 abc
b1111111111111111111111111111111111 abd
b100010 abe
1aaa

#33500
0aaa

#34000
1aab
b1001011000 aac
0aad
b1000100 aae
b1100110 aaf
b1000 aag
b1010 aah
1aaj
b100011 aak
b100011 aal
b11 aam
b11 aan
b10000000000000000000000000000000000 aao
b11111111111111111111111111111111111 aap
b100011 aaq
0aar
1aas
b1000100 aat
b100011 aau
b1100110 aav
b100011 aaw
b1000 aax
b11 aay
b1010 aaz
b11 aba
b10000000000000000000000000000000000 abc
b11111111111111111111111111111111111 abd
b100011 abe
1aaa

#34500
0aaa

#35000
0aab
b1001111011 aac
1aad
b1000110 aae
b1101001 aaf
b1100 aag
b1111 aah
0aaj
b100100 aak
b100100 aal
b100 aam
b100 aan
b100000000000000000000000000000000000 aao
b111111111111111111111111111111111111 aap
b100100 aaq
1aar
0aas
b1000110 aat
b100100 aau
b1101001 aav
b100100 aaw
b1100 aax
b100 aay
b1111 aaz
b100 aba
b100000000000000000000000000000000000 abc
b111111111111111111111111111111111111 abd
b100100 abe
1aaa

#35500
0aaa

#36000
1aab
b1010011111 aac
0aad
b1001000 aae
b1101100 aaf
b0 aag
b100 aah
1aaj
b100101 aak
b100101 aal
b101 aam
b101 aan
b1000000000000000000000000000000000000 aao
b1111111111111111111111111111111111111 aap
b100101 aaq
0aar
1aas
b1001000 aat
b100101 aau
b1101100 aav
b100101 aaw
b0 aax
b101 aay
b100 aaz
b101 aba
b1000000000000000000000000000000000000 abc
b1111111111111111111111111111111111111 abd
b100101 abe
1aaa

#36500
0aaa

#37000
0aab
b1011000100 aac
1aad
b1001010 aae
b1101111 aaf
b100 aag
b1001 aah
0aaj
b100110 aak
b100110 aal
b110 aam
b110 aan
b10000000000000000000000000000000000000 aao
b11111111111111111111111111111111111111 aap
b100110 aaq
1aar
0aas
b1001010 aat
b100110 aau
b1101111 aav
b100110 aaw
b100 aax
b110 aay
b1001 aaz
b110 aba
b10000000000000000000000000000000000000 abc
b11111111111111111111111111111111111111 abd
b100110 abe
1aaa

#37500
0aaa

#38000
1aab
b1011101010 aac
0aad
b1001100 aae
b1110010 aaf
b1000 aag
b1110 aah
1aaj
b100111 aak
b100111 aal
b111 aam
b111 aan
b100000000000000000000000000000000000000 aao
b111111111111111111111111111111111111111 aap
b100111 aaq
0aar
1aas
b1001100 aat
b100111 aau
b1110010 aav
b100111 aaw
b1000 aax
b111 aay
b1110 aaz
b111 aba
b100000000000000000000000000000000000000 abc
b111111111111111111111111111111111111111 abd
b100111 abe
1aaa

#38500
0aaa

#39000
0aab
b1100010001 aac
1aad
b1001110 aae
b1110101 aaf
b1100 aag
b11 aah
0aaj
b101000 aak
b101000 aal
b1000 aam
b1000 aan
b1000000000000000000000000000000000000000 aao
b1111111111111111111111111111111111111111 aap
b101000 aaq
1aar
0aas
b1001110 aat
b101000 aau
b1110101 aav
b101000 aaw
b1100 aax
b1000 aay
b11 aaz
b1000 aba
b1000000000000000000000000000000000000000 abc
b1111111111111111111111111111111111111111 abd
b101000 abe
1aaa

#39500
0aaa

#40000
1aab
b1100111001 aac
0aad
b1010000 aae
b1111000 aaf
b0 aag
b1000 aah
1aaj
b101001 aak
b101001 aal
b1001 aam
b1001 aan
b10000000000000000000000000000000000000000 aao
b11111111111111111111111111111111111111111 aap
b101001 aaq
0aar
1aas
b1010000 aat
b101001 aau
b1111000 aav
b101001 aaw
b0 aax
b1001 aay
b1000 aaz
b1001 aba
b10000000000000000000000000000000000000000 abc
b11111111111111111111111111111111111111111 abd
b101001 abe
1aaa

#40500
0aaa

#41000
0aab
b1101100010 aac
1aad
b1010010 aae
b1111011 aaf
b100 aag
b1101 aah
0aaj
b101010 aak
b101010 aal
b1010 aam
b1010 aan
b100000000000000000000000000000000000000000 aao
b111111111111111111111111111111111111111111 aap
b101010 aaq
1aar
0aas
b1010010 aat
b101010 aau
b1111011 aav
b101010 aaw
b100 aax
b1010 aay
b1101 aaz
b1010 aba
b100000000000000000000000000000000000000000 abc
b111111111111111111111111111111111111111111 abd
b101010 abe
1aaa

#41500
0aaa

#42000
1aab
b1110001100 aac
0aad
b1010100 aae
b1111110 aaf
b1000 aag
b10 aah
1aaj
b101011 aak
b101011 aal
b1011 aam
b1011 aan
b1000000000000000000000000000000000000000000 aao
b1111111111111111111111111111111111111111111 aap
b101011 aaq
0aar
1aas
b1010100 aat
b101011 aau
b1111110 aav
b101011 aaw
b1000 aax
b1011 aay
b10 aaz
b1011 aba
b1000000000000000000000000000000000000000000 abc
b1111111111111111111111111111111111111111111 abd
b101011 abe
1aaa

#42500
0aaa

#43000
0aab
b1110110111 aac
1aad
b1010110 aae
b10000001 aaf
b1100 aag
b111 aah
0aaj
b101100 aak
b101100 aal
b1100 aam
b1100 aan
b10000000000000000000000000000000000000000000 aao
b11111111111111111111111111111111111111111111 aap
b101100 aaq
1aar
0aas
b1010110 aat
b101100 aau
b10000001 aav
b101100 aaw
b1100 aax
b1100 aay
b111 aaz
b1100 aba
b10000000000000000000000000000000000000000000 abc
b11111111111111111111111111111111111111111111 abd
b101100 abe
1aaa

#43500
0aaa

#44000
1aab
b1111100011 aac
0aad
b1011000 aae
b10000100 aaf
b0 aag
b1100 aah
1aaj
b101101 aak
b101101 aal
b1101 aam
b1101 aan
b100000000000000000000000000000000000000000000 aao
b111111111111111111111111111111111111111111111 aap
b101101 aaq
0aar
1aas
b1011000 aat
b101101 aau
b10000100 aav
b101101 aaw
b0 aax
b1101 aay
b1100 aaz
b1101 aba
b100000000000000000000000000000000000000000000 abc
b111111111111111111111111111111111111111111111 abd
b101101 abe
1aaa

#44500
0aaa

#45000
0aab
b10000010000 aac
1aad
b1011010 aae
b10000111 aaf
b100 aag
b1 aah
0aaj
b101110 aak
b101110 aal
b1110 aam
b1110 aan
b1000000000000000000000000000000000000000000000 aao
b1111111111111111111111111111111111111111111111 aap
b101110 aaq
1aar
0aas
b1011010 aat
b101110 aau
b10000111 aav
b101110 aaw
b100 aax
b1110 aay
b1 aaz
b1110 aba
b1000000000000000000000000000000000000000000000 abc
b1111111111111111111111111111111111111111111111 abd
b101110 abe
1aaa

#45500
0aaa

#46000
1aab
b10000111110 aac
0aad
b1011100 aae
b10001010 aaf
b1000 aag
b110 aah
1aaj
b101111 aak
b101111 aal
b1111 aam
b1111 aan
b10000000000000000000000000000000000000000000000 aao
b11111111111111111111111111111111111111111111111 aap
b101111 aaq
0aar
1aas
b1011100 aat
b101111 aau
b10001010 aav
b101111 aaw
b1000 aax
b1111 aay
b110 aaz
b1111 aba
b10000000000000000000000000000000000000000000000 abc
b11111111111111111111111111111111111111111111111 abd
b101111 abe
1aaa

#46500
0aaa

#47000
0aab
b10001101101 aac
1aad
b1011110 aae
b10001101 aaf
b1100 aag
b1011 aah
0aaj
b110000 aak
b110000 aal
b0 aam
b0 aan
b100000000000000000000000000000000000000000000000 aao
b111111111111111111111111111111111111111111111111 aap
b110000 aaq
1aar
0aas
b1011110 aat
b110000 aau
b10001101 aav
b110000 aaw
b1100 aax
b0 aay
b1011 aaz
b0 aba
b100000000000000000000000000000000000000000000000 abc
b111111111111111111111111111111111111111111111111 abd
b110000 abe
1aaa

#47500
0aaa

#48000
1aab
b10010011101 aac
0aad
b1100000 aae
b10010000 aaf
b0 aag
b0 aah
1aaj
b110001 aak
b110001 aal
b1 aam
b1 aan
b1000000000000000000000000000000000000000000000000 aao
b1111111111111111111111111111111111111111111111111 aap
b110001 aaq
0aar
1aas
b1100000 aat
b110001 aau
b10010000 aav
b110001 aaw
b0 aax
b1 aay
b0 aaz
b1 aba
b1000000000000000000000000000000000000000000000000 abc
b1111111111111111111111111111111111111111111111111 abd
b110001 abe
1aaa

#48500
0aaa

#49000
0aab
b10011001110 aac
1aad
b1100010 aae
b10010011 aaf
b100 aag
b101 aah
0aaj
b110010 aak
b110010 aal
b10 aam
b10 aan
b10000000000000000000000000000000000000000000000000 aao
b11111111111111111111111111111111111111111111111111 aap
b110010 aaq
1aar
0aas
b1100010 aat
b110010 aau
b10010011 aav
b110010 aaw
b100 aax
b10 aay
b101 aaz
b10 aba
b10000000000000000000000000000000000000000000000000 abc
b11111111111111111111111111111111111111111111111111 abd
b110010 abe
1aaa

#49500
0aaa

#50000
1aab
b10100000000 aac
0aad
b1100100 aae
b10010110 aaf
b1000 aag
b1010 aah
1aaj
b110011 aak
b110011 aal
b11 aam
b11 aan
b100000000000000000000000000000000000000000000000000 aao
b111111111111111111111111111111111111111111111111111 aap
b110011 aaq
0aar
1aas
b1100100 aat
b110011 aau
b10010110 aav
b110011 aaw
b1000 aax
b11 aay
b1010 aaz
b11 aba
b100000000000000000000000000000000000000000000000000 abc
b111111111111111111111111111111111111111111111111111 abd
b110011 abe
1aaa

#50500
0aaa

#51000
0aab
b10100110011 aac
1aad
b1100110 aae
b10011001 aaf
b1100 aag
b1111 aah
0aaj
b110100 aak
b110100 aal
b100 aam
b100 aan
b1000000000000000000000000000000000000000000000000000 aao
b1111111111111111111111111111111111111111111111111111 aap
b110100 aaq
1aar
0aas
b1100110 aat
b110100 aau
b10011001 aav
b110100 aaw
b1100 aax
b100 aay
b1111 aaz
b100 aba
b1000000000000000000000000000000000000000000000000000 abc
b1111111111111111111111111111111111111111111111111111 abd
b110100 abe
1aaa

#51500
0aaa

#52000
1aab
b10101100111 aac
0aad
b1101000 aae
b10011100 aaf
b0 aag
b100 aah
1aaj
b110101 aak
b110101 aal
b101 aam
b101 aan
b10000000000000000000000000000000000000000000000000000 aao
b11111111111111111111111111111111111111111111111111111 aap
b110101 aaq
0aar
1aas
b1101000 aat
b110101 aau
b10011100 aav
b110101 aaw
b0 aax
b101 aay
b100 aaz
b101 aba
b10000000000000000000000000000000000000000000000000000 abc
b11111111111111111111111111111111111111111111111111111 abd
b110101 abe
1aaa

#52500
0aaa

#53000
0aab
b10110011100 aac
1aad
b1101010 aae
b10011111 aaf
b100 aag
b1001 aah
0aaj
b110110 aak
b110110 aal
b110 aam
b110 aan
b100000000000000000000000000000000000000000000000000000 aao
b111111111111111111111111111111111111111111111111111111 aap
b110110 aaq
1aar
0aas
b1101010 aat
b110110 aau
b10011111 aav
b110110 aaw
b100 aax
b110 aay
b1001 aaz
b110 aba
b100000000000000000000000000000000000000000000000000000 abc
b111111111111111111111111111111111111111111111111111111 abd
b110110 abe
1aaa

#53500
0aaa

#54000
1aab
b10111010010 aac
0aad
b1101100 aae
b10100010 aaf
b1000 aag
b1110 aah
1aaj
b110111 aak
b110111 aal
b111 aam
b111 aan
b1000000000000000000000000000000000000000000000000000000 aao
b1111111111111111111111111111111111111111111111111111111 aap
b110111 aaq
0aar
1aas
b1101100 aat
b110111 aau
b10100010 aav
b110111 aaw
b1000 aax
b111 aay
b1110 aaz
b111 aba
b1000000000000000000000000000000000000000000000000000000 abc
b1111111111111111111111111111111111111111111111111111111 abd
b110111 abe
1aaa

#54500
0aaa

#55000
0aab
b11000001001 aac
1aad
b1101110 aae
b10100101 aaf
b1100 aag
b11 aah
0aaj
b111000 aak
b111000 aal
b1000 aam
b1000 aan
b10000000000000000000000000000000000000000000000000000000 aao
b11111111111111111111111111111111111111111111111111111111 aap
b111000 aaq
1aar
0aas
b1101110 aat
b111000 aau
b10100101 aav
b111000 aaw
b1100 aax
b1000 aay
b11 aaz
b1000 aba
b10000000000000000000000000000000000000000000000000000000 abc
b11111111111111111111111111111111111111111111111111111111 abd
b111000 abe
1aaa

#55500
0aaa

