test_regression/17032005/trace_file_reference.vcd

$timescale
     1 ps
$end

$scope module SystemC $end
$var wire    6  aaa  ui6 [5:0]  $end
$var wire   16  aab  ui16 [15:0]  $end
$var wire   31  aac  ui31 [30:0]  $end
$var wire   32  aad  ui32 [31:0]  $end
$var wire   64  aae  ui64 [63:0]  $end
$var wire    6  aaf  i6 [5:0]  $end
$var wire   16  aag  i16 [15:0]  $end
$var wire   31  aah  i31 [30:0]  $end
$var wire   32  aai  i32 [31:0]  $end
$var wire   64  aaj  i64 [63:0]  $end
$var wire    1  aak  clk       $end
$upscope $end
$enddefinitions  $end

$comment
All initial values are dumped below at time 0 sec = 0 timescale units.
$end

$dumpvars
b0 aaa
b0 aab
b0 aac
b0 aad
b0 aae
b0 aaf
b0 aag
b0 aah
b0 aai
b0 aaj
1aak
$end

#0
b1111 aaa
b111111 aab
b100000000 aac
b1000010001 aad
b10101011110011110001001000110100 aae
b1111 aaf
b111111 aag
b10001000100010010001000100010 aah
b1000011001000010100001100100001 aai
b1000100010001001010101111001101 aaj

#500
0aak

#1000
1aak

#1500
0aak

#2000
1aak

#2500
0aak

#3000
b11111 aaa
b1111111 aab
b1000000001 aac
b10000100011 aad
b101010111100111100010010001101001 aae
b11111 aaf
b1111111 aag
b100010001000100100010001000101 aah
b10000110010000101000011001000011 aai
b10001000100010010101011110011011 aaj
1aak

#3500
0aak

#4000
b111111 aaa
b11111111 aab
b10000000011 aac
b100001000111 aad
b1010101111001111000100100011010011 aae
b111111 aaf
b11111111 aag
b1000100010001001000100010001011 aah
b1100100001010000110010000111 aai
b100010001000100101010111100110111 aaj
1aak

#4500
0aak

#5000
b111111111 aab
b100000000111 aac
b1000010001111 aad
b10101011110011110001001000110100111 aae
b111111111 aag
b1000100010010001000100010111 aah
b11001000010100001100100001111 aai
b1000100010001001010101111001101111 aaj
1aak

#5500
0aak

#6000
b1111111111 aab
b1000000001111 aac
b10000100011111 aad
b101010111100111100010010001101001111 aae
b1111111111 aag
b10001000100100010001000101111 aah
b110010000101000011001000011111 aai
b10001000100010010101011110011011111 aaj
1aak

#6500
0aak

#7000
b11111111111 aab
b10000000011111 aac
b100001000111111 aad
b1010101111001111000100100011010011111 aae
b11111111111 aag
b100010001001000100010001011111 aah
b1100100001010000110010000111111 aai
b100010001000100101010111100110111111 aaj
1aak

#7500
0aak

#8000
b111111111111 aab
b100000000111111 aac
b1000010001111111 aad
b10101011110011110001001000110100111111 aae
b111111111111 aag
b1000100010010001000100010111111 aah
b11001000010100001100100001111111 aai
b1000100010001001010101111001101111111 aaj
1aak

#8500
0aak

#9000
b1111111111111 aab
b1000000001111111 aac
b10000100011111111 aad
b101010111100111100010010001101001111111 aae
b1111111111111 aag
b1000100100010001000101111111 aah
b10010000101000011001000011111111 aai
b10001000100010010101011110011011111111 aaj
1aak

#9500
0aak

#10000
b11111111111111 aab
b10000000011111111 aac
b100001000111111111 aad
b1010101111001111000100100011010011111111 aae
b11111111111111 aag
b10001001000100010001011111111 aah
b100001010000110010000111111111 aai
b100010001000100101010111100110111111111 aaj
1aak

#10500
0aak

#11000
b111111111111111 aab
b100000000111111111 aac
b1000010001111111111 aad
b10101011110011110001001000110100111111111 aae
b111111111111111 aag
b100010010001000100010111111111 aah
b1000010100001100100001111111111 aai
b1000100010001001010101111001101111111111 aaj
1aak

#11500
0aak

#12000
b1111111111111111 aab
b1000000001111111111 aac
b10000100011111111111 aad
b101010111100111100010010001101001111111111 aae
b1111111111111111 aag
b1000100100010001000101111111111 aah
b10000101000011001000011111111111 aai
b10001000100010010101011110011011111111111 aaj
1aak

#12500
0aak

#13000
b10000000011111111111 aac
b100001000111111111111 aad
b1010101111001111000100100011010011111111111 aae
b1001000100010001011111111111 aah
b1010000110010000111111111111 aai
b100010001000100101010111100110111111111111 aaj
1aak

#13500
0aak

#14000
b100000000111111111111 aac
b1000010001111111111111 aad
b10101011110011110001001000110100111111111111 aae
b10010001000100010111111111111 aah
b10100001100100001111111111111 aai
b1000100010001001010101111001101111111111111 aaj
1aak

#14500
0aak

#15000
b1000000001111111111111 aac
b10000100011111111111111 aad
b101010111100111100010010001101001111111111111 aae
b100100010001000101111111111111 aah
b101000011001000011111111111111 aai
b10001000100010010101011110011011111111111111 aaj
1aak

#15500
0aak

#16000
b10000000011111111111111 aac
b100001000111111111111111 aad
b1010101111001111000100100011010011111111111111 aae
b1001000100010001011111111111111 aah
b1010000110010000111111111111111 aai
b100010001000100101010111100110111111111111111 aaj
1aak

#16500
0aak

#17000
b100000000111111111111111 aac
b1000010001111111111111111 aad
b10101011110011110001001000110100111111111111111 aae
b10001000100010111111111111111 aah
b10100001100100001111111111111111 aai
b1000100010001001010101111001101111111111111111 aaj
1aak

#17500
0aak

#18000
b1000000001111111111111111 aac
b10000100011111111111111111 aad
b101010111100111100010010001101001111111111111111 aae
b100010001000101111111111111111 aah
b1000011001000011111111111111111 aai
b10001000100010010101011110011011111111111111111 aaj
1aak

#18500
0aak

#19000
b10000000011111111111111111 aac
b100001000111111111111111111 aad
b1010101111001111000100100011010011111111111111111 aae
b1000100010001011111111111111111 aah
b10000110010000111111111111111111 aai
b100010001000100101010111100110111111111111111111 aaj
1aak

#19500
0aak

#20000
b100000000111111111111111111 aac
b1000010001111111111111111111 aad
b10101011110011110001001000110100111111111111111111 aae
b1000100010111111111111111111 aah
b1100100001111111111111111111 aai
b1000100010001001010101111001101111111111111111111 aaj
1aak

#20500
0aak

#21000
b1000000001111111111111111111 aac
b10000100011111111111111111111 aad
b101010111100111100010010001101001111111111111111111 aae
b10001000101111111111111111111 aah
b11001000011111111111111111111 aai
b10001000100010010101011110011011111111111111111111 aaj
1aak

#21500
0aak

#22000
b10000000011111111111111111111 aac
b100001000111111111111111111111 aad
b1010101111001111000100100011010011111111111111111111 aae
b100010001011111111111111111111 aah
b110010000111111111111111111111 aai
b100010001000100101010111100110111111111111111111111 aaj
1aak

